-------------------------------------------------------------------------------
Test set: id.nexcloud.nexsurvey.repository.repository.AppTest
-------------------------------------------------------------------------------
Tests run: 1, Failures: 0, Errors: 0, Skipped: 0, Time elapsed: 0.047 sec
